Mini-Project #03 – STA/OPR 9750 2024 Submission Material
…
Code

# Find the first and last year (1976 and 2022) and calculate the seat change
seat_change <- district_counts %>%
  filter(year == 1976 | year == 2022) %>%
  spread(year, district_count) %>%
  rename(seats_1976 = `1976`, seats_2022 = `2022`) %>%
  mutate(seat_change = seats_2022 - seats_1976) %>%
  arrange(desc(abs(seat_change)))

# Display or plot the results
print(seat_change)

# A tibble: 50 × 4
   state        seats_1976 seats_2022 seat_change
   <chr>             <int>      <int>       <int>
 1 TEXAS                24         38          14
 2 FLORIDA              15         28          13
 3 NEW YORK             39         26         -13
 4 CALIFORNIA           43         52           9
 5 OHIO                 23         15          -8
 6 PENNSYLVANIA         25         17          -8
 7 ILLINOIS             24         17          -7
 8 MICHIGAN             19         13          -6
 9 ARIZONA               4          9           5
10 GEORGIA              10         14           4
# ℹ 40 more rows
…
Code

print("Fusion Votes Table:")

[1] "Fusion Votes Table:"

Code

print(fusion_votes)

# A tibble: 2,596 × 4
    year district candidate         total_votes
   <dbl>    <dbl> <chr>                   <dbl>
 1  1976        1 OTIS G PIKE            135528
 2  1976        1 SALVATORE NICOSIA       61671
 3  1976        1 SETH C MORGAN           10269
 4  1976        2 PETER F COHALAN         67755
 5  1976        2 ROCHELLE DAVIDSON         906
 6  1976        2 THOMAS J DOWNEY         91241
 7  1976        3 HOWARD T HOGAN JR       84824
 8  1976        3 HY YORK                  2350
 9  1976        3 JEROME A AMBRO JR       94265
10  1976        4 GERALD P HALPERN        83971
# ℹ 2,586 more rows

Code

print("Major Party Votes Table:")

[1] "Major Party Votes Table:"

Code

print(major_party_votes)

# A tibble: 1,395 × 4
    year district candidate           major_party_votes
   <dbl>    <dbl> <chr>                           <dbl>
 1  1976        1 OTIS G PIKE                    129779
 2  1976        1 SALVATORE NICOSIA               61671
 3  1976        2 PETER F COHALAN                 57612
 4  1976        2 THOMAS J DOWNEY                 90172
 5  1976        3 HOWARD T HOGAN JR               71714
 6  1976        3 JEROME A AMBRO JR               94265
 7  1976        4 GERALD P HALPERN                79308
 8  1976        4 NORMAN F LENT                   91304
 9  1976        5 ALLARD K LOWENSTEIN             82882
10  1976        5 JOHN W WYDLER                   98337
# ℹ 1,385 more rows
Code

# Display comparison table sorted by vote difference
comparison_all_sorted <- comparison_all %>%
  arrange(desc(vote_difference))

print("Comparison Table Sorted by Vote Difference:")

[1] "Comparison Table Sorted by Vote Difference:"

Code

print(comparison_all_sorted)

# A tibble: 2,596 × 8
# Groups:   year, district [748]
    year district candidate        total_votes major_party_votes vote_difference
   <dbl>    <dbl> <chr>                  <dbl>             <dbl>           <dbl>
 1  2016       27 CHRIS COLLINS         220885            175509           45376
 2  2020       27 CHRIS JACOBS          228885            192619           36266
 3  2014       27 CHRIS COLLINS         144675            109171           35504
 4  2020        9 YVETTE D CLARKE       230221            195758           34463
 5  2020        7 NYDIA M VELAZQU…      191073            156889           34184
 6  2004       25 JAMES T WALSH         189063            155163           33900
 7  2002       21 MICHAEL R MCNUL…      161329            128584           32745
 8  2016       24 JOHN KATKO            182761            150330           32431
 9  2002       25 JAMES T WALSH         144610            113914           30696
10  2016       19 JOHN J FASO           166171            135905           30266
# ℹ 2,586 more rows
# ℹ 2 more variables: rank_fusion <int>, rank_major <int>
…
Code

# Filter cases where fusion voting affected the ranking
potentially_affected_cases <- comparison_all_sorted %>%
  filter(rank_fusion != rank_major)

print("Cases Where Fusion Voting May Have Affected Outcome:")

[1] "Cases Where Fusion Voting May Have Affected Outcome:"

Code

print(potentially_affected_cases)

# A tibble: 218 × 8
# Groups:   year, district [109]
    year district candidate        total_votes major_party_votes vote_difference
   <dbl>    <dbl> <chr>                  <dbl>             <dbl>           <dbl>
 1  1996        1 MICHAEL P FORBES      116620             90001           26619
 2  2018       27 CHRIS COLLINS         140146            114506           25640
 3  1996       30 JACK QUINN            121369             97320           24049
 4  2012       27 CHRIS COLLINS         161220            137250           23970
 5  2018       24 JOHN M KATKO          136920            113538           23382
 6  2010       25 ANN MARIE BUERK…      104602             81380           23222
 7  2010       19 NAN HAYMORTH          109956             88734           21222
 8  2006       25 JAMES T WALSH         110525             91187           19338
 9  2022       22 BRANDON M WILLI…      135544            116529           19015
10  1994        1 MICHAEL P FORBES       90491             72045           18446
# ℹ 208 more rows
# ℹ 2 more variables: rank_fusion <int>, rank_major <int>
…
Code

print("District-Wide Winner-Take-All + At-Large Votes:")

[1] "District-Wide Winner-Take-All + At-Large Votes:"

Code

print(results_district_at_large)

# A tibble: 21 × 2
   candidate                       total_ecv
   <chr>                               <dbl>
 1 "GORE, AL"                       50996064
 2 "BUSH, GEORGE W."                50456169
 3 "NADER, RALPH"                    2542163
 4 "BROWNE, HARRY"                    374630
 5 "BUCHANAN, PATRICK \"\"PAT\"\""    355412
 6 ""                                 349547
 7 "BLANK VOTE/SCATTERING"            169238
 8 "NOT DESIGNATED"                   151723
 9 "PHILLIPS, HOWARD"                  84457
10 "HAGELIN, JOHN"                     80274
# ℹ 11 more rows

Code

print("State-Wide Proportional:")

[1] "State-Wide Proportional:"

Code

print(results_state_proportional)

# A tibble: 21 × 2
   candidate                       total_ecv
   <chr>                               <dbl>
 1 ""                                      0
 2 "BLANK VOTE"                            0
 3 "BLANK VOTE/SCATTERING"                 0
 4 "BROWNE, HARRY"                         0
 5 "BUCHANAN, PATRICK \"\"PAT\"\""         0
 6 "BUSH, GEORGE W."                       0
 7 "DENNIS \"\"DENNY\"\", LANE"            0
 8 "DODGE, EARL"                           0
 9 "GORE, AL"                              0
10 "HAGELIN, JOHN"                         0
# ℹ 11 more rows

Code

print("National Proportional:")

[1] "National Proportional:"

Code

print(results_national_proportional)

# A tibble: 21 × 4
   candidate                 candidate_total_votes national_vote_share total_ecv
   <chr>                                     <int>               <dbl>     <dbl>
 1 "GORE, AL"                             50996062            0.483      260.   
 2 "BUSH, GEORGE W."                      50456169            0.478      257.   
 3 "NADER, RALPH"                          2542163            0.0241      13.0  
 4 "BROWNE, HARRY"                          374630            0.00355      1.91 
 5 "BUCHANAN, PATRICK \"\"P…                355412            0.00337      1.81 
 6 ""                                       349547            0.00331      1.78 
 7 "BLANK VOTE/SCATTERING"                  169238            0.00160      0.862
 8 "NOT DESIGNATED"                         151723            0.00144      0.773
 9 "PHILLIPS, HOWARD"                        84457            0.000800     0.430
10 "HAGELIN, JOHN"                           80274            0.000760     0.409
# ℹ 11 more rows
