Mini Project 01 – STA 9750 2024 Submission Material
…
      TRUE ~ "Unknown"
    )
  )

USAGE_AND_FINANCIALS <- left_join(USAGE_2022_ANNUAL, FINANCIALS, by = c("NTD ID", "Mode")) %>%
  drop_na()

print(USAGE_AND_FINANCIALS)

# A tibble: 1,043 × 9
   `NTD ID` Agency    metro_area Mode     UPT    VRM `Agency Name` `Total Fares`
      <dbl> <chr>     <chr>      <chr>  <dbl>  <dbl> <chr>                 <dbl>
 1        1 King Cou… Seattle--… MB    5.40e7 6.16e7 King County …      56846337
 2        1 King Cou… Seattle--… DR    6.63e5 1.29e7 King County …        832327
 3        1 King Cou… Seattle--… FB    4.00e5 5.12e4 King County …       1715265
 4        1 King Cou… Seattle--… SR    1.12e6 1.80e5 King County …        588495
 5        1 King Cou… Seattle--… TB    9.58e6 2.64e6 King County …      10123486
 6        1 King Cou… Seattle--… VP    7.03e5 4.41e6 King County …       5484481
 7        2 Spokane … Spokane, … MB    6.60e6 6.49e6 Spokane Tran…       6135110
 8        2 Spokane … Spokane, … DR    3.10e5 4.04e6 Spokane Tran…        531284
 9        2 Spokane … Spokane, … VP    9.06e4 9.06e5 Spokane Tran…        247718
10        3 Pierce C… Seattle--… MB    4.95e6 4.23e6 Pierce Count…       4356831
# ℹ 1,033 more rows
# ℹ 1 more variable: Expenses <dbl>
…
