Mini-Project #02
…
Choose a prestige actor or director and confirm that they have many projects with high scores on your success metric.

Code

prestige_movies <- TITLE_PRINCIPALS %>%
  filter(nconst == "nm0000229") %>%  # Spielberg's IMDb ID as an example
  inner_join(TITLE_RATINGS, by = "tconst") %>%
  arrange(desc(success_metric))

prestige_movies

# A tibble: 259 × 9
   tconst    ordering nconst    category job   characters averageRating numVotes
   <chr>        <dbl> <chr>     <chr>    <chr> <chr>              <dbl>    <dbl>
 1 tt0108052       11 nm0000229 director <NA>  <NA>                 9    1482083
 2 tt0108052       16 nm0000229 producer prod… <NA>                 9    1482083
 3 tt0120815       12 nm0000229 director <NA>  <NA>                 8.6  1527571
 4 tt0120815       17 nm0000229 producer prod… <NA>                 8.6  1527571
 5 tt0082971       12 nm0000229 director <NA>  <NA>                 8.4  1052154
 6 tt0107290       11 nm0000229 director <NA>  <NA>                 8.2  1090254
 7 tt0264464       11 nm0000229 director <NA>  <NA>                 8.1  1125540
 8 tt0264464       16 nm0000229 producer prod… <NA>                 8.1  1125540
 9 tt0097576       11 nm0000229 director <NA>  <NA>                 8.2   822834
10 tt0073195       11 nm0000229 director <NA>  <NA>                 8.1   677185
# ℹ 249 more rows
# ℹ 1 more variable: success_metric <dbl>
…
# Define the cutoff year for remakes (25 years ago)
cutoff_year <- 1999

# Filter for highly-rated documentaries made before 1999
classic_documentaries <- movies_with_ratings %>%
  filter(genres == "Documentary" & startYear < cutoff_year & averageRating >= 7.5) %>%
  arrange(desc(averageRating))

# Check for large number of IMDb ratings (e.g., at least 1000 votes)
classic_documentaries_high_votes <- classic_documentaries %>%
  filter(numVotes >= 1000)

print(classic_documentaries_high_votes)

# A tibble: 268 × 13
   tconst    titleType    primaryTitle   originalTitle isAdult startYear endYear
   <chr>     <chr>        <chr>          <chr>         <lgl>       <dbl>   <dbl>
 1 tt0365559 tvEpisode    Nirvana        Nirvana       FALSE        1993      NA
 2 tt0078588 tvMiniSeries Connections    Connections   FALSE        1978    1978
 3 tt0081846 tvMiniSeries Cosmos         Cosmos        FALSE        1980    1980
 4 tt0383795 tvSeries     The Joy of Pa… Bob Ross: Th… FALSE        1983    2024
 5 tt0071075 tvSeries     The World at … The World at… FALSE        1973    1974
 6 tt0108700 tvMiniSeries Baseball       Baseball      FALSE        1994    2010
 7 tt0110758 tvSpecial    Pink Floyd: P… Pink Floyd: … FALSE        1994      NA
 8 tt0111893 tvMiniSeries The Beatles A… The Beatles … FALSE        1995    1996
 9 tt0135095 tvMiniSeries Life on Earth  Life on Earth FALSE        1979    1979
10 tt0158874 tvSpecial    Queen Live at… Queen Live a… FALSE        1986      NA
# ℹ 258 more rows
# ℹ 6 more variables: runtimeMinutes <chr>, genres <chr>, decade <dbl>,
#   averageRating <dbl>, numVotes <dbl>, success_metric <dbl>
…
